{
	"elements": [
		{
			"text": "Water",
			"emoji": "💧",
			"discovered": false
		},
		{
			"text": "Fire",
			"emoji": "🔥",
			"discovered": false
		},
		{
			"text": "Wind",
			"emoji": "🌬️",
			"discovered": false
		},
		{
			"text": "Earth",
			"emoji": "🌍",
			"discovered": false
		},
		{
			"text": "Smoke",
			"emoji": "💨",
			"discovered": false
		},
		{
			"text": "Steam",
			"emoji": "💨",
			"discovered": false
		},
		{
			"text": "Cloud",
			"emoji": "☁️",
			"discovered": false
		},
		{
			"text": "Rain",
			"emoji": "🌧️",
			"discovered": false
		},
		{
			"text": "Rainbow",
			"emoji": "🌈",
			"discovered": false
		},
		{
			"text": "Plant",
			"emoji": "🌱",
			"discovered": false
		},
		{
			"text": "Swamp",
			"emoji": "🐊",
			"discovered": false
		},
		{
			"text": "Fog",
			"emoji": "🌫️",
			"discovered": false
		},
		{
			"text": "Ghost",
			"emoji": "👻",
			"discovered": false
		},
		{
			"text": "Rainbow Dash",
			"emoji": "🌈",
			"discovered": false
		},
		{
			"text": "Pony",
			"emoji": "🐴",
			"discovered": false
		},
		{
			"text": "Carrot",
			"emoji": "🥕",
			"discovered": false
		},
		{
			"text": "Bunny",
			"emoji": "🐰",
			"discovered": false
		},
		{
			"text": "Toast",
			"emoji": "🍞",
			"discovered": false
		},
		{
			"text": "Mountain",
			"emoji": "🏔️",
			"discovered": false
		},
		{
			"text": "Popcorn",
			"emoji": "🍿",
			"discovered": false
		},
		{
			"text": "Unicorn",
			"emoji": "🦄",
			"discovered": false
		},
		{
			"text": "Dragon",
			"emoji": "🐉",
			"discovered": false
		},
		{
			"text": "Movie",
			"emoji": "🎥",
			"discovered": false
		},
		{
			"text": "Dragon Ball",
			"emoji": "🐉",
			"discovered": false
		},
		{
			"text": "Goku",
			"emoji": "👊",
			"discovered": false
		},
		{
			"text": "Lake",
			"emoji": "🌊",
			"discovered": false
		},
		{
			"text": "Ocean",
			"emoji": "🌊",
			"discovered": false
		},
		{
			"text": "Fish",
			"emoji": "🐟",
			"discovered": false
		},
		{
			"text": "Sushi",
			"emoji": "🍣",
			"discovered": false
		},
		{
			"text": "Lava",
			"emoji": "🌋",
			"discovered": false
		},
		{
			"text": "Volcano",
			"emoji": "🌋",
			"discovered": false
		},
		{
			"text": "Island",
			"emoji": "🏝️",
			"discovered": false
		},
		{
			"text": "Engine",
			"emoji": "🚗",
			"discovered": false
		},
		{
			"text": "Dragon Ball Z",
			"emoji": "🐉",
			"discovered": false
		},
		{
			"text": "Dust",
			"emoji": "🌫️",
			"discovered": false
		},
		{
			"text": "Wave",
			"emoji": "🌊",
			"discovered": false
		},
		{
			"text": "Tsunami",
			"emoji": "🌊",
			"discovered": false
		},
		{
			"text": "Tornado",
			"emoji": "🌪️",
			"discovered": false
		},
		{
			"text": "Tornado Ball",
			"emoji": "🌪️",
			"discovered": false
		},
		{
			"text": "Waterfall",
			"emoji": "🌊",
			"discovered": false
		},
		{
			"text": "Niagara Falls",
			"emoji": "🌊",
			"discovered": false
		},
		{
			"text": "Ice",
			"emoji": "❄️",
			"discovered": false
		},
		{
			"text": "Frost",
			"emoji": "❄️",
			"discovered": false
		},
		{
			"text": "Frieza",
			"emoji": "👿",
			"discovered": false
		},
		{
			"text": "Vegeta",
			"emoji": "👑",
			"discovered": false
		},
		{
			"text": "Gogeta",
			"emoji": "👑",
			"discovered": false
		},
		{
			"text": "Vegetable",
			"emoji": "🥦",
			"discovered": false
		},
		{
			"text": "Freeza",
			"emoji": "🥶",
			"discovered": false
		},
		{
			"text": "Vegito",
			"emoji": "💥",
			"discovered": false
		},
		{
			"text": "Rabbit",
			"emoji": "🐰",
			"discovered": false
		},
		{
			"text": "Tree",
			"emoji": "🌳",
			"discovered": false
		},
		{
			"text": "Frog",
			"emoji": "🐸",
			"discovered": false
		},
		{
			"text": "Toad",
			"emoji": "🐸",
			"discovered": false
		},
		{
			"text": "Boiling Frog",
			"emoji": "🐸",
			"discovered": false
		},
		{
			"text": "Prince",
			"emoji": "👑",
			"discovered": false
		},
		{
			"text": "King",
			"emoji": "👑",
			"discovered": false
		},
		{
			"text": "Kingdom",
			"emoji": "👑",
			"discovered": false
		},
		{
			"text": "Wealth",
			"emoji": "💰",
			"discovered": false
		},
		{
			"text": "Gold",
			"emoji": "💛",
			"discovered": false
		},
		{
			"text": "Money",
			"emoji": "💵",
			"discovered": false
		},
		{
			"text": "Taxes",
			"emoji": "💸",
			"discovered": false
		},
		{
			"text": "Democracy",
			"emoji": "🗳️",
			"discovered": false
		},
		{
			"text": "Phoenix",
			"emoji": "🔥",
			"discovered": false
		},
		{
			"text": "Yin Yang",
			"emoji": "☯️",
			"discovered": false
		},
		{
			"text": "Politics",
			"emoji": "🗳️",
			"discovered": false
		},
		{
			"text": "Karma",
			"emoji": "🌟",
			"discovered": false
		},
		{
			"text": "Drama",
			"emoji": "🎭",
			"discovered": false
		},
		{
			"text": "Gay",
			"emoji": "🏳️‍🌈",
			"discovered": false
		},
		{
			"text": "Flower",
			"emoji": "🌸",
			"discovered": false
		},
		{
			"text": "Marriage",
			"emoji": "💍",
			"discovered": false
		},
		{
			"text": "Flamer",
			"emoji": "🔥",
			"discovered": false
		},
		{
			"text": "Sashimi",
			"emoji": "🍣",
			"discovered": false
		},
		{
			"text": "Butter",
			"emoji": "🧈",
			"discovered": false
		},
		{
			"text": "Stone",
			"emoji": "🪨",
			"discovered": false
		},
		{
			"text": "Japan",
			"emoji": "🗾",
			"discovered": false
		},
		{
			"text": "Pokemon",
			"emoji": "🐉",
			"discovered": false
		},
		{
			"text": "Eevee",
			"emoji": "🐱",
			"discovered": false
		},
		{
			"text": "Glaceon",
			"emoji": "❄️",
			"discovered": false
		},
		{
			"text": "Princess",
			"emoji": "👸",
			"discovered": false
		},
		{
			"text": "Bride",
			"emoji": "👰",
			"discovered": false
		},
		{
			"text": "Revenge",
			"emoji": "🔪",
			"discovered": false
		},
		{
			"text": "Queen",
			"emoji": "👑",
			"discovered": false
		},
		{
			"text": "Love",
			"emoji": "❤️",
			"discovered": false
		},
		{
			"text": "Mewtwo",
			"emoji": "👾",
			"discovered": false
		},
		{
			"text": "Butterfree",
			"emoji": "🦋",
			"discovered": false
		},
		{
			"text": "Pain",
			"emoji": "😖",
			"discovered": false
		},
		{
			"text": "Squirtle",
			"emoji": "💦",
			"discovered": false
		},
		{
			"text": "Tsunamon",
			"emoji": "🌊",
			"discovered": false
		},
		{
			"text": "Pikachu",
			"emoji": "⚡️",
			"discovered": false
		},
		{
			"text": "Tornadus",
			"emoji": "🌪️",
			"discovered": false
		},
		{
			"text": "Kermit",
			"emoji": "🐸",
			"discovered": false
		},
		{
			"text": "Mudkip",
			"emoji": "🐸",
			"discovered": false
		},
		{
			"text": "Gengar",
			"emoji": "👻",
			"discovered": false
		},
		{
			"text": "Ponyta",
			"emoji": "🐴",
			"discovered": false
		},
		{
			"text": "Grass",
			"emoji": "🌱",
			"discovered": false
		},
		{
			"text": "Charizard",
			"emoji": "🐉",
			"discovered": false
		},
		{
			"text": "Flying",
			"emoji": "✈️",
			"discovered": false
		},
		{
			"text": "Pidgey",
			"emoji": "🐦",
			"discovered": false
		},
		{
			"text": "Pidgeotto",
			"emoji": "🐦",
			"discovered": false
		},
		{
			"text": "Pidgeot",
			"emoji": "🐦",
			"discovered": false
		},
		{
			"text": "Kermitmon",
			"emoji": "🐸",
			"discovered": false
		},
		{
			"text": "Sunflora",
			"emoji": "🌻",
			"discovered": false
		},
		{
			"text": "Arceus",
			"emoji": "🌌",
			"discovered": false
		},
		{
			"text": "Surf",
			"emoji": "🏄",
			"discovered": false
		},
		{
			"text": "Dustox",
			"emoji": "🐛",
			"discovered": false
		},
		{
			"text": "Magmar",
			"emoji": "🌋",
			"discovered": false
		},
		{
			"text": "Magikarp",
			"emoji": "🐟",
			"discovered": false
		},
		{
			"text": "Dragonite",
			"emoji": "🐉",
			"discovered": false
		},
		{
			"text": "Detective Pikachu",
			"emoji": "🕵️‍♂",
			"discovered": false
		},
		{
			"text": "Egg",
			"emoji": "🥚",
			"discovered": false
		},
		{
			"text": "Misty",
			"emoji": "🌫️",
			"discovered": false
		},
		{
			"text": "Bulbasaur",
			"emoji": "🌱",
			"discovered": false
		},
		{
			"text": "Smogon",
			"emoji": "🌫️",
			"discovered": false
		},
		{
			"text": "Revolution",
			"emoji": "✊",
			"discovered": false
		},
		{
			"text": "Evolution",
			"emoji": "🦖",
			"discovered": false
		},
		{
			"text": "Ivysaur",
			"emoji": "🌱",
			"discovered": false
		},
		{
			"text": "Venusaur",
			"emoji": "🌱",
			"discovered": false
		},
		{
			"text": "Blastoise",
			"emoji": "🐢",
			"discovered": false
		},
		{
			"text": "Rapidash",
			"emoji": "🐎",
			"discovered": false
		},
		{
			"text": "Mew",
			"emoji": "🐱",
			"discovered": false
		},
		{
			"text": "Pidgeotito",
			"emoji": "🐦🌮",
			"discovered": false
		},
		{
			"text": "Mega Charizard",
			"emoji": "🐉",
			"discovered": false
		},
		{
			"text": "Mega Pidgeotito",
			"emoji": "🦜",
			"discovered": false
		},
		{
			"text": "Communism",
			"emoji": "🌹",
			"discovered": false
		},
		{
			"text": "Lenin",
			"emoji": "🇷🇺",
			"discovered": false
		},
		{
			"text": "Stalin",
			"emoji": "🇷🇺",
			"discovered": false
		},
		{
			"text": "LeninPidgeotito",
			"emoji": "🤔",
			"discovered": true
		},
		{
			"text": "LeninVegeta",
			"emoji": "🌌",
			"discovered": false
		},
		{
			"text": "China",
			"emoji": "🇨🇳",
			"discovered": false
		},
		{
			"text": "Bamboo",
			"emoji": "🎋",
			"discovered": false
		},
		{
			"text": "Wood",
			"emoji": "🌲",
			"discovered": false
		},
		{
			"text": "Paper",
			"emoji": "📃",
			"discovered": false
		},
		{
			"text": "Book",
			"emoji": "📚",
			"discovered": false
		},
		{
			"text": "Library",
			"emoji": "📚",
			"discovered": false
		},
		{
			"text": "Statue",
			"emoji": "🗽",
			"discovered": false
		},
		{
			"text": "Dragonborn",
			"emoji": "🐉",
			"discovered": false
		},
		{
			"text": "Rainbow Vegeta",
			"emoji": "🌈",
			"discovered": false
		},
		{
			"text": "Dandelion",
			"emoji": "🌼",
			"discovered": false
		},
		{
			"text": "Tea",
			"emoji": "🍵",
			"discovered": false
		},
		{
			"text": "Incense",
			"emoji": "🕯️",
			"discovered": false
		},
		{
			"text": "Mushroom",
			"emoji": "🍄",
			"discovered": false
		},
		{
			"text": "Dandelion Patch",
			"emoji": "🌼",
			"discovered": false
		},
		{
			"text": "Planet",
			"emoji": "🪐",
			"discovered": false
		},
		{
			"text": "Storm",
			"emoji": "⛈️",
			"discovered": false
		},
		{
			"text": "Steampunk",
			"emoji": "🕯️",
			"discovered": false
		},
		{
			"text": "Steampunk Pirate",
			"emoji": "🏴‍☠️",
			"discovered": false
		},
		{
			"text": "Duck",
			"emoji": "🦆",
			"discovered": false
		},
		{
			"text": "Tempest",
			"emoji": "🌪️",
			"discovered": false
		},
		{
			"text": "Airship",
			"emoji": "🛩️",
			"discovered": false
		},
		{
			"text": "Duckling",
			"emoji": "🦆",
			"discovered": false
		},
		{
			"text": "Typhoon",
			"emoji": "🌀",
			"discovered": false
		},
		{
			"text": "Family",
			"emoji": "👨‍👩‍",
			"discovered": false
		},
		{
			"text": "Venus Flytrap",
			"emoji": "🪲",
			"discovered": false
		},
		{
			"text": "Farm",
			"emoji": "🐄",
			"discovered": false
		},
		{
			"text": "Sea",
			"emoji": "🌊",
			"discovered": false
		},
		{
			"text": "Cloud Trap",
			"emoji": "☁️",
			"discovered": false
		},
		{
			"text": "Field",
			"emoji": "🌾",
			"discovered": false
		},
		{
			"text": "Landship",
			"emoji": "🚢",
			"discovered": false
		},
		{
			"text": "Garden",
			"emoji": "🌱",
			"discovered": false
		},
		{
			"text": "Lawn",
			"emoji": "🌱",
			"discovered": false
		},
		{
			"text": "Fishing",
			"emoji": "🎣",
			"discovered": false
		},
		{
			"text": "Fishing Rod",
			"emoji": "🎣",
			"discovered": false
		},
		{
			"text": "Park",
			"emoji": "🏞️",
			"discovered": false
		},
		{
			"text": "Kite",
			"emoji": "🪁",
			"discovered": false
		},
		{
			"text": "Titan",
			"emoji": "🌎",
			"discovered": false
		},
		{
			"text": "Cyclops",
			"emoji": "👁️",
			"discovered": false
		},
		{
			"text": "Eye",
			"emoji": "👀",
			"discovered": false
		},
		{
			"text": "Zoo",
			"emoji": "🐘",
			"discovered": false
		},
		{
			"text": "Mud",
			"emoji": "💩",
			"discovered": false
		},
		{
			"text": "Clay",
			"emoji": "🏺",
			"discovered": false
		},
		{
			"text": "Mist",
			"emoji": "🌫️",
			"discovered": false
		},
		{
			"text": "Pottery",
			"emoji": "🏺",
			"discovered": false
		},
		{
			"text": "Elephant",
			"emoji": "🐘",
			"discovered": false
		},
		{
			"text": "Trunk",
			"emoji": "📦",
			"discovered": false
		},
		{
			"text": "Thundurus",
			"emoji": "🌩️",
			"discovered": false
		},
		{
			"text": "Hurricane",
			"emoji": "🌀",
			"discovered": false
		},
		{
			"text": "Profit",
			"emoji": "💸",
			"discovered": false
		},
		{
			"text": "Empire",
			"emoji": "🏰",
			"discovered": false
		},
		{
			"text": "War",
			"emoji": "💥",
			"discovered": false
		},
		{
			"text": "Vegetable War",
			"emoji": "🥕",
			"discovered": false
		},
		{
			"text": "Fortune",
			"emoji": "🔮",
			"discovered": false
		},
		{
			"text": "Empire State Building",
			"emoji": "🗽",
			"discovered": false
		},
		{
			"text": "Alchemy",
			"emoji": "🧪",
			"discovered": false
		},
		{
			"text": "Philosophy",
			"emoji": "💭",
			"discovered": false
		},
		{
			"text": "Swan",
			"emoji": "🦢",
			"discovered": false
		},
		{
			"text": "Philosopher’s Stone",
			"emoji": "🧙‍♂️",
			"discovered": false
		},
		{
			"text": "Salad",
			"emoji": "🥗",
			"discovered": false
		},
		{
			"text": "Chicken",
			"emoji": "🐔",
			"discovered": false
		},
		{
			"text": "Farming",
			"emoji": "🌾",
			"discovered": false
		},
		{
			"text": "Golem",
			"emoji": "🏛️",
			"discovered": false
		},
		{
			"text": "Gunpowder",
			"emoji": "💣",
			"discovered": false
		},
		{
			"text": "Red Tape",
			"emoji": "📝",
			"discovered": false
		},
		{
			"text": "Marxism",
			"emoji": "🌹",
			"discovered": false
		},
		{
			"text": "Anarchy",
			"emoji": "🚫",
			"discovered": false
		},
		{
			"text": "Eeveelution",
			"emoji": "🌌",
			"discovered": false
		},
		{
			"text": "Anarchist",
			"emoji": "🏴",
			"discovered": false
		},
		{
			"text": "Chaos",
			"emoji": "💥",
			"discovered": false
		},
		{
			"text": "Riot",
			"emoji": "💥",
			"discovered": false
		},
		{
			"text": "Vegetarian",
			"emoji": "🌱",
			"discovered": false
		},
		{
			"text": "Monarchy",
			"emoji": "👑",
			"discovered": false
		},
		{
			"text": "Rose",
			"emoji": "🌹",
			"discovered": false
		},
		{
			"text": "Bird",
			"emoji": "🐦",
			"discovered": false
		},
		{
			"text": "Anarchox",
			"emoji": "🏴‍☠️",
			"discovered": false
		},
		{
			"text": "Anarchapikachu",
			"emoji": "🤔",
			"discovered": false
		},
		{
			"text": "Anarchsmogon",
			"emoji": "🏴‍☠️",
			"discovered": false
		},
		{
			"text": "Anarchysaur",
			"emoji": "🦖",
			"discovered": false
		},
		{
			"text": "Bible",
			"emoji": "📖",
			"discovered": false
		},
		{
			"text": "Shroom",
			"emoji": "🍄",
			"discovered": false
		},
		{
			"text": "Cold",
			"emoji": "❄️",
			"discovered": false
		},
		{
			"text": "Winter",
			"emoji": "❄️",
			"discovered": false
		},
		{
			"text": "Pirate",
			"emoji": "🏴‍☠️",
			"discovered": false
		},
		{
			"text": "Cronus",
			"emoji": "👴",
			"discovered": false
		},
		{
			"text": "Pig",
			"emoji": "🐷",
			"discovered": false
		},
		{
			"text": "Trump",
			"emoji": "👨‍💼",
			"discovered": false
		},
		{
			"text": "Business",
			"emoji": "💼",
			"discovered": false
		},
		{
			"text": "Forest",
			"emoji": "🌲",
			"discovered": false
		},
		{
			"text": "Moon",
			"emoji": "🌙",
			"discovered": false
		},
		{
			"text": "Werewolf",
			"emoji": "🐺",
			"discovered": false
		},
		{
			"text": "Wolf",
			"emoji": "🐺",
			"discovered": false
		},
		{
			"text": "Vacuum",
			"emoji": "🧹",
			"discovered": false
		},
		{
			"text": "Hellhound",
			"emoji": "👹",
			"discovered": false
		},
		{
			"text": "Black Hole",
			"emoji": "🕳️",
			"discovered": false
		},
		{
			"text": "Dark Matter",
			"emoji": "🌌",
			"discovered": false
		},
		{
			"text": "Vase",
			"emoji": "🏺",
			"discovered": false
		},
		{
			"text": "Burnt Toast",
			"emoji": "🍞",
			"discovered": false
		},
		{
			"text": "Snow",
			"emoji": "❄️",
			"discovered": false
		},
		{
			"text": "Continent",
			"emoji": "🌎",
			"discovered": false
		},
		{
			"text": "Fossil",
			"emoji": "🦴",
			"discovered": false
		},
		{
			"text": "Boulder",
			"emoji": "🪨",
			"discovered": false
		},
		{
			"text": "Manga",
			"emoji": "📚",
			"discovered": false
		},
		{
			"text": "Wolf Girl",
			"emoji": "🐺",
			"discovered": false
		},
		{
			"text": "Sun",
			"emoji": "☀️",
			"discovered": false
		},
		{
			"text": "Vampire",
			"emoji": "🧛",
			"discovered": false
		},
		{
			"text": "Blood",
			"emoji": "🩸",
			"discovered": false
		},
		{
			"text": "Heart",
			"emoji": "❤️",
			"discovered": false
		},
		{
			"text": "Valentine",
			"emoji": "💘",
			"discovered": false
		},
		{
			"text": "Cerberus",
			"emoji": "🐶",
			"discovered": false
		},
		{
			"text": "Bacon",
			"emoji": "🥓",
			"discovered": false
		},
		{
			"text": "Goose",
			"emoji": "🦢",
			"discovered": false
		},
		{
			"text": "Broken",
			"emoji": "💔",
			"discovered": false
		},
		{
			"text": "Broly",
			"emoji": "👊",
			"discovered": false
		},
		{
			"text": "Gohan",
			"emoji": "🍜",
			"discovered": false
		},
		{
			"text": "Gohan Dash",
			"emoji": "💨",
			"discovered": false
		},
		{
			"text": "Freedom",
			"emoji": "🗽",
			"discovered": false
		},
		{
			"text": "Trunks",
			"emoji": "👖",
			"discovered": false
		},
		{
			"text": "Rainbow Trunks",
			"emoji": "🌈",
			"discovered": false
		},
		{
			"text": "Rainbow Goku",
			"emoji": "🌈",
			"discovered": false
		},
		{
			"text": "Evil",
			"emoji": "😈",
			"discovered": false
		},
		{
			"text": "Homophobia",
			"emoji": "🏳️‍🌈",
			"discovered": false
		},
		{
			"text": "Soap Opera",
			"emoji": "📺",
			"discovered": false
		},
		{
			"text": "Wedding",
			"emoji": "👰",
			"discovered": false
		},
		{
			"text": "Divorce",
			"emoji": "💔",
			"discovered": false
		},
		{
			"text": "Gay Marriage",
			"emoji": "👬",
			"discovered": false
		},
		{
			"text": "Vegeta Marriage",
			"emoji": "💍",
			"discovered": false
		},
		{
			"text": "Empire State Vegeta Marriage",
			"emoji": "💍",
			"discovered": false
		},
		{
			"text": "Gay Vegeta Marriage",
			"emoji": "🌈",
			"discovered": false
		},
		{
			"text": "Kermit the Frog",
			"emoji": "🐸",
			"discovered": false
		},
		{
			"text": "Kermit The Vegeta",
			"emoji": "🐸",
			"discovered": false
		},
		{
			"text": "Super Saiyan",
			"emoji": "💥",
			"discovered": false
		},
		{
			"text": "Businessman",
			"emoji": "👔",
			"discovered": false
		},
		{
			"text": "Entrepreneur",
			"emoji": "💼",
			"discovered": false
		},
		{
			"text": "Super Entrepreneur",
			"emoji": "💼",
			"discovered": false
		},
		{
			"text": "Mark Zuckerberg",
			"emoji": "🤖",
			"discovered": false
		},
		{
			"text": "Facebook",
			"emoji": "💬",
			"discovered": false
		},
		{
			"text": "Fake News",
			"emoji": "💩",
			"discovered": false
		},
		{
			"text": "Fake Gohan",
			"emoji": "🤥👦",
			"discovered": false
		},
		{
			"text": "Fake Gohan News",
			"emoji": "🤥",
			"discovered": false
		},
		{
			"text": "Vegeta Soap Opera",
			"emoji": "🤔",
			"discovered": false
		},
		{
			"text": "Kermit The Flamer",
			"emoji": "🐸🔥",
			"discovered": false
		},
		{
			"text": "Rainbow Kermit",
			"emoji": "🌈",
			"discovered": false
		},
		{
			"text": "Surfing",
			"emoji": "🏄",
			"discovered": false
		},
		{
			"text": "Rainbow Werewolf",
			"emoji": "🐺",
			"discovered": false
		},
		{
			"text": "Rainbow Freeza",
			"emoji": "🌈",
			"discovered": false
		},
		{
			"text": "Gohan Freeza",
			"emoji": "🔥",
			"discovered": false
		},
		{
			"text": "Veggie Kermit",
			"emoji": "🥦",
			"discovered": false
		},
		{
			"text": "Rainbow Wolf Girl",
			"emoji": "🌈🐺👧",
			"discovered": false
		},
		{
			"text": "Rainbow Connection",
			"emoji": "🌈",
			"discovered": false
		},
		{
			"text": "Rainbow Ivysaur",
			"emoji": "🌈",
			"discovered": false
		},
		{
			"text": "Gohan Ivysaur",
			"emoji": "🍃",
			"discovered": false
		},
		{
			"text": "Rainbow Flamer",
			"emoji": "🌈",
			"discovered": false
		},
		{
			"text": "Rainbow Eevee",
			"emoji": "🌈",
			"discovered": false
		},
		{
			"text": "Anarchist Kermit",
			"emoji": "🐸🏴‍☠",
			"discovered": false
		},
		{
			"text": "Butterfly",
			"emoji": "🦋",
			"discovered": false
		},
		{
			"text": "Rainbow Cerberus",
			"emoji": "🌈",
			"discovered": false
		},
		{
			"text": "Muppet",
			"emoji": "🐸",
			"discovered": false
		},
		{
			"text": "Rainbow Dragon",
			"emoji": "🐲",
			"discovered": false
		},
		{
			"text": "Gohan Charizard",
			"emoji": "🐉",
			"discovered": false
		},
		{
			"text": "Goten",
			"emoji": "👦",
			"discovered": false
		},
		{
			"text": "Detective Gohan",
			"emoji": "🕵️‍♂️",
			"discovered": false
		},
		{
			"text": "Detective Kermit",
			"emoji": "🕵️‍♂️",
			"discovered": false
		},
		{
			"text": "Rainbow Kermit The Vegeta",
			"emoji": "🌈🐸🥦",
			"discovered": false
		},
		{
			"text": "Sun Gohan",
			"emoji": "🐉👦",
			"discovered": false
		},
		{
			"text": "Rainbow Gohan",
			"emoji": "🌈👦🏽",
			"discovered": false
		},
		{
			"text": "Ash",
			"emoji": "🌋",
			"discovered": false
		},
		{
			"text": "Bread",
			"emoji": "🍞",
			"discovered": false
		},
		{
			"text": "Sandwich",
			"emoji": "🥪",
			"discovered": false
		},
		{
			"text": "Pegasus",
			"emoji": "🦄",
			"discovered": false
		},
		{
			"text": "Moltres",
			"emoji": "🌋",
			"discovered": false
		},
		{
			"text": "Pine",
			"emoji": "🌲",
			"discovered": false
		},
		{
			"text": "Fire Tornado",
			"emoji": "🌪️",
			"discovered": false
		},
		{
			"text": "Rainbow Fire",
			"emoji": "🌈",
			"discovered": false
		},
		{
			"text": "Chernobyl",
			"emoji": "🌋",
			"discovered": false
		},
		{
			"text": "Super Saiyan Gohan",
			"emoji": "👶",
			"discovered": false
		},
		{
			"text": "Fire Hose",
			"emoji": "🚒",
			"discovered": false
		},
		{
			"text": "Fire Detective Pikachu",
			"emoji": "🔥🕵️‍♂",
			"discovered": false
		},
		{
			"text": "Rainbow Fire Tornado",
			"emoji": "🌪️",
			"discovered": false
		},
		{
			"text": "Fire Detective",
			"emoji": "🕵️‍♂",
			"discovered": false
		},
		{
			"text": "Fire Fighter",
			"emoji": "🚒",
			"discovered": false
		},
		{
			"text": "Elon Musk",
			"emoji": "👽",
			"discovered": false
		},
		{
			"text": "Steam Flamer",
			"emoji": "💨",
			"discovered": false
		},
		{
			"text": "Detective Charizard",
			"emoji": "🕵️‍♂",
			"discovered": false
		},
		{
			"text": "Kermit The Toast",
			"emoji": "🐸",
			"discovered": false
		},
		{
			"text": "Toast Kermit",
			"emoji": "🍞🐸",
			"discovered": false
		},
		{
			"text": "Rainbow Toast Kermit",
			"emoji": "🌈🍞🐸",
			"discovered": false
		},
		{
			"text": "Toasted Kermit",
			"emoji": "🐸🔥",
			"discovered": false
		},
		{
			"text": "Rainbow Toasted Kermit",
			"emoji": "🌈🍞🐸",
			"discovered": true
		},
		{
			"text": "Toasted Rainbow",
			"emoji": "🌈",
			"discovered": false
		},
		{
			"text": "Toasted Freeza",
			"emoji": "🔥",
			"discovered": true
		},
		{
			"text": "Burnt Toasted Freeza",
			"emoji": "🔥🍞🥶",
			"discovered": true
		},
		{
			"text": "Rainbow Toasted Gohan",
			"emoji": "🌈🍚",
			"discovered": true
		},
		{
			"text": "Train",
			"emoji": "🚂",
			"discovered": false
		},
		{
			"text": "Zephyr",
			"emoji": "💨",
			"discovered": false
		},
		{
			"text": "Flame",
			"emoji": "🔥",
			"discovered": false
		},
		{
			"text": "Rainbow Flame Cerberus",
			"emoji": "🌈🔥🐕",
			"discovered": false
		},
		{
			"text": "Fire Wolf",
			"emoji": "🔥",
			"discovered": false
		},
		{
			"text": "Arsonist",
			"emoji": "🔥",
			"discovered": false
		},
		{
			"text": "Super Saiyan 2 Gohan",
			"emoji": "👦",
			"discovered": false
		},
		{
			"text": "Fire Frog",
			"emoji": "🐸",
			"discovered": false
		},
		{
			"text": "Super Saiyan God",
			"emoji": "🌟",
			"discovered": false
		},
		{
			"text": "Super Saiyan Blue",
			"emoji": "🌌",
			"discovered": false
		},
		{
			"text": "Super Saiyan Blue Evolution",
			"emoji": "🌌",
			"discovered": false
		},
		{
			"text": "Super Saiyan Blue Evolution 2",
			"emoji": "🌌",
			"discovered": false
		},
		{
			"text": "Super Saiyan Blue Evolution 3",
			"emoji": "🌌",
			"discovered": false
		},
		{
			"text": "Super Saiyan Blue Evolution 4",
			"emoji": "🌌",
			"discovered": false
		},
		{
			"text": "Super Saiyan Blue Evolution 5",
			"emoji": "🌌",
			"discovered": false
		},
		{
			"text": "Super Saiyan Blue Evolution 6",
			"emoji": "🌌",
			"discovered": false
		},
		{
			"text": "Super Saiyan Goku",
			"emoji": "💥",
			"discovered": false
		},
		{
			"text": "Super Saiyan Blue Goku",
			"emoji": "💙",
			"discovered": false
		},
		{
			"text": "Super Saiyan Blue Vegito",
			"emoji": "💙",
			"discovered": false
		},
		{
			"text": "Super Saiyan Blue Vegito (Evolved)",
			"emoji": "🐉💙🔥",
			"discovered": false
		},
		{
			"text": "Kamehameha",
			"emoji": "🌊",
			"discovered": false
		},
		{
			"text": "Obsidian",
			"emoji": "🔪",
			"discovered": false
		},
		{
			"text": "Blade",
			"emoji": "🗡️",
			"discovered": false
		},
		{
			"text": "Sword",
			"emoji": "🗡️",
			"discovered": false
		},
		{
			"text": "Longsword",
			"emoji": "🗡️",
			"discovered": false
		},
		{
			"text": "Flame Sword",
			"emoji": "🗡️",
			"discovered": false
		},
		{
			"text": "Flaming Sword",
			"emoji": "🗡️",
			"discovered": false
		},
		{
			"text": "Fire Sword",
			"emoji": "🗡️",
			"discovered": false
		},
		{
			"text": "Flaming Frog",
			"emoji": "🔥🐸",
			"discovered": false
		},
		{
			"text": "Brokeback Mountain",
			"emoji": "🏔️",
			"discovered": false
		},
		{
			"text": "Brokeback Vegeta",
			"emoji": "🤠🐉",
			"discovered": false
		},
		{
			"text": "Brokeback Fire Fighter",
			"emoji": "🔥👨‍",
			"discovered": true
		},
		{
			"text": "Brokeback Freeza",
			"emoji": "🤠",
			"discovered": true
		},
		{
			"text": "Toadette",
			"emoji": "🐸",
			"discovered": false
		},
		{
			"text": "Bulma",
			"emoji": "🌌",
			"discovered": false
		},
		{
			"text": "Trumpeta",
			"emoji": "🎺",
			"discovered": false
		},
		{
			"text": "Trumpet",
			"emoji": "🎺",
			"discovered": false
		},
		{
			"text": "Asia",
			"emoji": "🌏",
			"discovered": false
		},
		{
			"text": "Katana",
			"emoji": "🗡️",
			"discovered": false
		},
		{
			"text": "Double Katana",
			"emoji": "⚔️",
			"discovered": false
		},
		{
			"text": "Flaming Katana",
			"emoji": "🗡️",
			"discovered": false
		},
		{
			"text": "Rainbow Katana",
			"emoji": "🌈",
			"discovered": false
		},
		{
			"text": "Rainbow Warrior",
			"emoji": "🌈",
			"discovered": false
		},
		{
			"text": "Rainbow Frog",
			"emoji": "🐸",
			"discovered": false
		},
		{
			"text": "Rainbow Frog Warrior",
			"emoji": "🌈🐸⚔️",
			"discovered": false
		},
		{
			"text": "Rainbow Toast",
			"emoji": "🌈",
			"discovered": false
		},
		{
			"text": "Eevegeta",
			"emoji": "🌱",
			"discovered": false
		},
		{
			"text": "Buttervegeta",
			"emoji": "🧈🥕🍠",
			"discovered": false
		},
		{
			"text": "Pikavega",
			"emoji": "🐣",
			"discovered": false
		},
		{
			"text": "Vegimite",
			"emoji": "🍞🧀",
			"discovered": false
		},
		{
			"text": "Detective Vegeta",
			"emoji": "🕵️‍♂️",
			"discovered": false
		},
		{
			"text": "Vegetaur",
			"emoji": "🌱",
			"discovered": false
		},
		{
			"text": "Kung Fu",
			"emoji": "🥋",
			"discovered": false
		},
		{
			"text": "Steameta",
			"emoji": "💨",
			"discovered": false
		},
		{
			"text": "Swageta",
			"emoji": "🤩",
			"discovered": false
		},
		{
			"text": "Kermit The Fighter",
			"emoji": "🐸🥊",
			"discovered": false
		},
		{
			"text": "Vegeta Blue Evolution 3",
			"emoji": "🥵",
			"discovered": false
		},
		{
			"text": "Pikavegeta",
			"emoji": "🍍🐉",
			"discovered": false
		},
		{
			"text": "Vegeta Blue Evolution 4",
			"emoji": "🌌",
			"discovered": false
		},
		{
			"text": "Sunflower",
			"emoji": "🌻",
			"discovered": false
		},
		{
			"text": "Duck Prince",
			"emoji": "🦆",
			"discovered": false
		},
		{
			"text": "New York Saiyan",
			"emoji": "🗽",
			"discovered": false
		},
		{
			"text": "Anarchysaurus",
			"emoji": "🦖",
			"discovered": false
		},
		{
			"text": "Werevegeta",
			"emoji": "🌱",
			"discovered": false
		},
		{
			"text": "Snowball",
			"emoji": "❄️",
			"discovered": false
		},
		{
			"text": "Super Vegeta",
			"emoji": "🥦",
			"discovered": false
		},
		{
			"text": "Anarchist Vegeta",
			"emoji": "🤔",
			"discovered": false
		},
		{
			"text": "Moltvegeta",
			"emoji": "🤔",
			"discovered": false
		},
		{
			"text": "Vegeta Toast",
			"emoji": "🍞🔥👑",
			"discovered": false
		},
		{
			"text": "Vegemite",
			"emoji": "🥄",
			"discovered": false
		},
		{
			"text": "Kai",
			"emoji": "🐺",
			"discovered": false
		},
		{
			"text": "Gyarados",
			"emoji": "🐉",
			"discovered": false
		},
		{
			"text": "Kakarot",
			"emoji": "🐸",
			"discovered": false
		},
		{
			"text": "Thunder",
			"emoji": "⛈️",
			"discovered": false
		},
		{
			"text": "Eeveegeta",
			"emoji": "🌌",
			"discovered": false
		},
		{
			"text": "Captain",
			"emoji": "🧑‍✈️",
			"discovered": false
		},
		{
			"text": "Fake Vegeta News",
			"emoji": "🤖",
			"discovered": false
		},
		{
			"text": "Vegetafly",
			"emoji": "🌿",
			"discovered": false
		},
		{
			"text": "Toasted Vegeta",
			"emoji": "🍞🐉",
			"discovered": false
		},
		{
			"text": "Vegeta Blue",
			"emoji": "💙",
			"discovered": false
		},
		{
			"text": "Vegeta Blue Evolution",
			"emoji": "🥵",
			"discovered": false
		},
		{
			"text": "Vegeta Blue Evolution 5",
			"emoji": "🌌",
			"discovered": false
		},
		{
			"text": "Ponytail",
			"emoji": "💁",
			"discovered": false
		},
		{
			"text": "Mewgeta",
			"emoji": "🐱🔥",
			"discovered": false
		},
		{
			"text": "Pidgevegeta",
			"emoji": "🐦🍃🐉",
			"discovered": false
		},
		{
			"text": "Lawnmower",
			"emoji": "🚜",
			"discovered": false
		},
		{
			"text": "Bureaucrat",
			"emoji": "📋",
			"discovered": false
		},
		{
			"text": "Veganarchist",
			"emoji": "🌱",
			"discovered": false
		},
		{
			"text": "Vegetaine",
			"emoji": "🥦",
			"discovered": false
		},
		{
			"text": "Zucker Vegeta",
			"emoji": "🍭👨‍",
			"discovered": false
		},
		{
			"text": "Vegeta Blue Evolution 2",
			"emoji": "🥵",
			"discovered": false
		}
	],
	"darkMode": true,
	"pinned": [],
	"recipes": {}
}